blueterra • blueterra
…
#> type        : <num>         <num>       <num>
#> values      :   -50           -50         -50
#>                 -80           -80         -80
make_isobath_corridors(hitw_prepared, depths = c(-50, -80), width = 20)
#> class       : SpatVector
#> geometry    : polygons
#> dimensions  : 2, 4  (geometries, attributes)
#> extent      : 137456.2, 137792, 205676.8, 205776.5  (xmin, xmax, ymin, ymax)
#> coord. ref. : NAD83 / Puerto Rico & Virgin Is. (EPSG:32161)
#> names       : level contour_value depth_label corridor_id
#> type        : <num>         <num>       <num>       <int>
#> values      :   -50           -50         -50           1
#>                 -80           -80         -80           2
extract_isobath_corridors(hitw_metrics, hitw_corridors)
#> # A tibble: 2,295 × 15
#>       ID level contour_value depth_label corridor_id slope_deg aspect_deg
#>    <int> <dbl>         <dbl>       <dbl>       <int>     <dbl>      <dbl>
#>  1     1   -50           -50         -50           1        NA         NA
#>  2     1   -50           -50         -50           1        NA         NA
#>  3     1   -50           -50         -50           1        NA         NA
#>  4     1   -50           -50         -50           1        NA         NA
#>  5     1   -50           -50         -50           1        NA         NA
#>  6     1   -50           -50         -50           1        NA         NA
#>  7     1   -50           -50         -50           1        NA         NA
#>  8     1   -50           -50         -50           1        NA         NA
#>  9     1   -50           -50         -50           1        NA         NA
#> 10     1   -50           -50         -50           1        NA         NA
#> # ℹ 2,285 more rows
#> # ℹ 8 more variables: northness <dbl>, eastness <dbl>, tri <dbl>,
#> #   rugosity_vrm_3x3 <dbl>, bpi_3x3 <dbl>, bpi_11x11 <dbl>, curvature <dbl>,
#> #   surface_area_ratio <dbl>
…
#>  1 137564. 2.06e5      75.5       161.    -0.944   0.329  12.3          0.00724 
#>  2 137540. 2.06e5      48.2       164.    -0.961   0.278   3.49         0.00927 
#>  3 137572. 2.06e5      78.6       165.    -0.966   0.258  15.7          0.00234 
#>  4 137728. 2.06e5      38.4       174.    -0.994   0.106   2.45         0.000596
#>  5 137756. 2.06e5      63.3       178.    -0.999   0.0319  6.27         0.0329  
#>  6 137580. 2.06e5      71.6       176.    -0.998   0.0624  9.15         0.00723 
#>  7 137524. 2.06e5      44.8       166.    -0.970   0.243   3.15         0.00382 
#>  8 137492. 2.06e5      47.6       170.    -0.984   0.178   3.46         0.00241 
#>  9 137604. 2.06e5      53.8       172.    -0.990   0.143   4.24         0.00414 
#> 10 137568. 2.06e5      37.7       153.    -0.893   0.450   2.44         0.0346  
#> # ℹ 4 more variables: bpi_3x3 <dbl>, bpi_11x11 <dbl>, curvature <dbl>,
#> #   surface_area_ratio <dbl>
terrain_pca(terrain_cells[, c("slope_deg", "tri", "bpi_3x3", "curvature")])
#> $scores
#> # A tibble: 100 × 5
#>    row_id     PC1    PC2     PC3      PC4
#>     <int>   <dbl>  <dbl>   <dbl>    <dbl>
#>  1      1  0.352   0.736  0.169  -0.00942
#>  2      2 -0.124   1.56  -0.328   0.0748 
#>  3      3 -0.221   0.251  0.134   0.0111 
#>  4      4 -0.442  -0.122  0.195  -0.0215 
#>  5      5 -0.0705  0.231  0.208   0.0314 
#>  6      6 -0.348  -0.204  0.249   0.0124 
#>  7      7  0.383   0.796  0.174   0.0231 
#>  8      8 -0.621   0.370 -0.0515  0.00393
#>  9      9  0.0587  0.146  0.300   0.0163 
#> 10     10  0.206   0.970  0.0431 -0.00602
#> # ℹ 90 more rows
…
#> $complete_rows
#>   [1] TRUE TRUE TRUE TRUE TRUE TRUE TRUE TRUE TRUE TRUE TRUE TRUE TRUE TRUE TRUE
#>  [16] TRUE TRUE TRUE TRUE TRUE TRUE TRUE TRUE TRUE TRUE TRUE TRUE TRUE TRUE TRUE
#>  [31] TRUE TRUE TRUE TRUE TRUE TRUE TRUE TRUE TRUE TRUE TRUE TRUE TRUE TRUE TRUE
#>  [46] TRUE TRUE TRUE TRUE TRUE TRUE TRUE TRUE TRUE TRUE TRUE TRUE TRUE TRUE TRUE
#>  [61] TRUE TRUE TRUE TRUE TRUE TRUE TRUE TRUE TRUE TRUE TRUE TRUE TRUE TRUE TRUE
#>  [76] TRUE TRUE TRUE TRUE TRUE TRUE TRUE TRUE TRUE TRUE TRUE TRUE TRUE TRUE TRUE
#>  [91] TRUE TRUE TRUE TRUE TRUE TRUE TRUE TRUE TRUE TRUE
pca_axis_labels(pca_set$overall)
#>                               PC1                               PC2 
#> "PC1 (73.4%; bpi_3x3, curvature)"     "PC2 (23.4%; slope_deg, tri)"
terrain_pca_by_group(comparison, group = "site", vars = c("slope_deg", "tri", "bpi_3x3", "curvature"))
#> $overall
#> $overall$scores
#> # A tibble: 60 × 6
#>    row_id      PC1    PC2     PC3       PC4 site            
#>     <int>    <dbl>  <dbl>   <dbl>     <dbl> <chr>           
#>  1      1  0.00271 0.428  -0.308  -0.0102   Hole-in-the-Wall
#>  2      2  0.313   0.0785 -0.215  -0.0905   Hole-in-the-Wall
#>  3      3 -3.70    1.89    1.35   -0.00150  Hole-in-the-Wall
#>  4      4 -0.932   3.77    1.15   -0.000698 Hole-in-the-Wall
#>  5      5 -0.115   2.03   -0.0969  0.0347   Hole-in-the-Wall
#>  6      6  0.151   0.526  -0.309  -0.00717  Hole-in-the-Wall
#>  7      7  0.487   0.784  -0.247   0.00719  Hole-in-the-Wall
#>  8      8  0.00662 0.499  -0.327   0.0150   Hole-in-the-Wall
#>  9      9  0.218   0.331  -0.270   0.0175   Hole-in-the-Wall
#> 10     10  0.581   0.477  -0.211   0.00287  Hole-in-the-Wall
#> # ℹ 50 more rows
…
#> 
#> $overall$vars
#> [1] "slope_deg" "tri"       "bpi_3x3"   "curvature"
#> 
#> $overall$complete_rows
#>  [1] TRUE TRUE TRUE TRUE TRUE TRUE TRUE TRUE TRUE TRUE TRUE TRUE TRUE TRUE TRUE
#> [16] TRUE TRUE TRUE TRUE TRUE TRUE TRUE TRUE TRUE TRUE TRUE TRUE TRUE TRUE TRUE
#> [31] TRUE TRUE TRUE TRUE TRUE TRUE TRUE TRUE TRUE TRUE TRUE TRUE TRUE TRUE TRUE
#> [46] TRUE TRUE TRUE TRUE TRUE TRUE TRUE TRUE TRUE TRUE TRUE TRUE TRUE TRUE TRUE
#> 
#> 
#> $groups
#> $groups$`El Hoyo`
#> $groups$`El Hoyo`$scores
#> # A tibble: 21 × 6
#>    row_id     PC1     PC2      PC3      PC4 site   
#>     <int>   <dbl>   <dbl>    <dbl>    <dbl> <chr>  
#>  1      1  0.253   0.256  -0.0601   0.0100  El Hoyo
#>  2      2  1.54    0.129   0.0733   0.0174  El Hoyo
#>  3      3 -4.62   -0.281   0.207   -0.0289  El Hoyo
#>  4      4 -0.384   0.0859 -0.181   -0.0217  El Hoyo
#>  5      5 -0.0783  0.536  -0.0447  -0.0293  El Hoyo
#>  6      6  1.08   -1.03    0.00954 -0.0109  El Hoyo
#>  7      7  1.38   -0.605   0.0616   0.00889 El Hoyo
#>  8      8 -2.90    0.585   0.105    0.0356  El Hoyo
#>  9      9 -0.657   0.0513 -0.153    0.00799 El Hoyo
#> 10     10  1.81   -0.648   0.161   -0.0133  El Hoyo
#> # ℹ 11 more rows
…
#> tri       -0.5130162  0.3865783  0.7496345  0.1594355
#> bpi_3x3    0.5029299  0.4852718 -0.0576920  0.7129126
#> curvature -0.5015236 -0.4941400 -0.2312044  0.6714494
#> 
#> $groups$`El Hoyo`$vars
#> [1] "slope_deg" "tri"       "bpi_3x3"   "curvature"
#> 
#> $groups$`El Hoyo`$complete_rows
#>  [1] TRUE TRUE TRUE TRUE TRUE TRUE TRUE TRUE TRUE TRUE TRUE TRUE TRUE TRUE TRUE
#> [16] TRUE TRUE TRUE TRUE TRUE TRUE
#> 
#> 
#> $groups$`Hole-in-the-Wall`
#> $groups$`Hole-in-the-Wall`$scores
#> # A tibble: 39 × 6
#>    row_id     PC1     PC2     PC3      PC4 site            
#>     <int>   <dbl>   <dbl>   <dbl>    <dbl> <chr>           
#>  1      1  0.450   0.145  -0.253  -0.0153  Hole-in-the-Wall
#>  2      2  0.826  -0.228  -0.0147 -0.0773  Hole-in-the-Wall
#>  3      3 -3.11    1.96    0.759   0.00423 Hole-in-the-Wall
#>  4      4 -0.785   3.51    0.249  -0.0112  Hole-in-the-Wall
#>  5      5  0.0955  1.72   -0.515   0.0118  Hole-in-the-Wall
#>  6      6  0.576   0.225  -0.269  -0.0134  Hole-in-the-Wall
#>  7      7  0.867   0.442  -0.246  -0.00186 Hole-in-the-Wall
#>  8      8  0.438   0.213  -0.296   0.00489 Hole-in-the-Wall
#>  9      9  0.681   0.0286 -0.162   0.0100  Hole-in-the-Wall
#> 10     10  1.02    0.133  -0.105  -0.00184 Hole-in-the-Wall
#> # ℹ 29 more rows
…
#>  [92,]  53.39810  4.064891
#>  [93,]  52.85676  4.130381
#>  [94,]  47.72486  3.451756
#>  [95,]  42.89171  2.948806
#>  [96,]  52.56121  4.040430
#>  [97,]  44.38953  3.137012
#>  [98,]  43.13595  2.879061
#>  [99,]  43.37973  2.836687
#> [100,]  43.42013  2.941682
#> 
#> $y
#> NULL
#> 
#> $data
#> # A tibble: 100 × 12
#>          x      y slope_deg aspect_deg northness eastness   tri rugosity_vrm_3x3
#>      <dbl>  <dbl>     <dbl>      <dbl>     <dbl>    <dbl> <dbl>            <dbl>
#>  1 137484. 2.06e5      49.2       170.    -0.985   0.172   3.66         0.00154 
#>  2 137520. 2.06e5      35.5       166.    -0.972   0.234   2.22         0.00365 
#>  3 137484. 2.06e5      48.5       164.    -0.963   0.270   3.60         0.00216 
#>  4 137504. 2.06e5      50.3       168.    -0.977   0.212   3.78         0.000161
#>  5 137520. 2.06e5      50.4       172.    -0.991   0.137   3.75         0.000537
#>  6 137540. 2.06e5      52.0       171.    -0.988   0.153   4.01         0.00171 
#>  7 137560. 2.06e5      49.1       178.    -1.000   0.0276  3.56         0.00593 
#>  8 137576. 2.06e5      43.3       162.    -0.952   0.306   3.00         0.00114 
#>  9 137596. 2.06e5      52.7       181.    -1.000  -0.0203  3.95         0.00366 
#> 10 137616. 2.06e5      45.4       173.    -0.992   0.127   3.17         0.00199 
#> # ℹ 90 more rows
#> # ℹ 4 more variables: bpi_3x3 <dbl>, bpi_11x11 <dbl>, curvature <dbl>,
#> #   surface_area_ratio <dbl>
balance_samples(comparison, group = "site", seed = 42)
#> # A tibble: 42 × 7
#>          x       y slope_deg   tri  bpi_3x3 curvature site   
#>      <dbl>   <dbl>     <dbl> <dbl>    <dbl>     <dbl> <chr>  
#>  1 135698. 204865.     38.5  2.30  -0.165      0.537  El Hoyo
#>  2 135586. 204753.     36.7  2.30  -0.0225     0.0208 El Hoyo
#>  3 135698. 204641.     31.2  1.87  -0.00338    0.0224 El Hoyo
#>  4 135526. 204809.      7.13 0.370  0.0960    -0.345  El Hoyo
#>  5 135754. 204697.     36.0  2.12  -0.137      0.401  El Hoyo
#>  6 135642. 204697.     18.1  0.942  0.182     -0.538  El Hoyo
#>  7 135754. 204865.      8.24 0.423 -0.0317     0.0878 El Hoyo
#>  8 135810. 204865.     31.6  1.85   0.377     -1.18   El Hoyo
#>  9 135754. 204753.     58.4  4.71  -0.454      1.31   El Hoyo
#> 10 135698. 204753.     12.0  0.616  0.0421    -0.135  El Hoyo
#> # ℹ 32 more rows
…
