…
standardize_metric_names(c("Slope (deg)", "Broad BPI"))
#> [1] "slope_deg" "broad_bpi"
rename_metric_layers(c("old_slope"), c(old_slope = "slope_deg"))
#> [1] "slope_deg"
```

## Depth Bands

``` r
summarize_depth_bands(
  bathy,
  metrics = metric_stack,
  breaks = c(-90, -70, -50, -30, -20)
)
#> # A tibble: 28 × 8
#>    depth_band metric    n_cells    mean    sd    min    max  median
#>    <chr>      <chr>       <int>   <dbl> <dbl>  <dbl>  <dbl>   <dbl>
#>  1 [-90,-70)  slope_deg    1048  8.21   2.82   2.44  18.4    7.12  
#>  2 [-90,-70)  northness    1048  0.758  0.227  0.323  1.000  0.850 
#>  3 [-90,-70)  eastness     1048  0.0223 0.612 -0.940  0.947 -0.0240
#>  4 [-90,-70)  tri          1048  1.12   0.388  0.355  2.41   0.974 
#>  5 [-90,-70)  bpi_3x3      1048 -0.0457 0.133 -0.700  0.195 -0.0152
#>  6 [-90,-70)  bpi_11x11    1048 -0.679  1.18  -3.59   2.23  -0.754 
#>  7 [-90,-70)  curvature    1048  0.0564 0.249 -0.586  0.686  0.0193
#>  8 [-70,-50)  slope_deg     768 10.7    3.44   5.98  20.4   10.2   
#>  9 [-70,-50)  northness     768  0.849  0.153  0.424  1.000  0.926 
#> 10 [-70,-50)  eastness      768 -0.0303 0.505 -0.862  0.906 -0.0978
#> # ℹ 18 more rows

summarize_depth_bands(
  set_depth_positive(bathy),
  metrics = metric_stack,
  breaks = c(20, 30, 50, 70, 90),
  positive_depth = TRUE
)
#> # A tibble: 28 × 8
#>    depth_band metric    n_cells     mean     sd     min     max   median
#>    <chr>      <chr>       <int>    <dbl>  <dbl>   <dbl>   <dbl>    <dbl>
#>  1 [20,30)    slope_deg     518  6.13    0.981   0.364   8.26    5.82   
#>  2 [20,30)    northness     518  0.980   0.0289  0.844   1.000   0.996  
#>  3 [20,30)    eastness      518  0.00127 0.195  -0.395   0.536  -0.0172 
#>  4 [20,30)    tri           518  0.830   0.140   0.321   1.14    0.771  
#>  5 [20,30)    bpi_3x3       518  0.0668  0.177  -0.0269  0.658   0.00357
#>  6 [20,30)    bpi_11x11     518  0.999   1.01   -0.300   3.56    0.655  
#>  7 [20,30)    curvature     518 -0.0117  0.0522 -0.857   0.0805 -0.00681
#>  8 [30,50)    slope_deg    1147  7.55    3.01    0.451  20.0     6.72   
#>  9 [30,50)    northness    1147  0.795   0.299  -0.991   1.000   0.916  
#> 10 [30,50)    eastness     1147 -0.0696  0.524  -1.000   1.000  -0.154  
#> # ℹ 18 more rows
```
…
terrain_correlation(cells)
#> # A tibble: 21 × 3
#>    var1      var2      correlation
#>    <chr>     <chr>           <dbl>
#>  1 slope_deg northness     -0.0846
#>  2 slope_deg eastness       0.308 
#>  3 northness eastness       0.157 
#>  4 slope_deg tri            0.998 
#>  5 northness tri           -0.0704
#>  6 eastness  tri            0.317 
#>  7 slope_deg bpi_3x3        0.213 
#>  8 northness bpi_3x3        0.0599
#>  9 eastness  bpi_3x3       -0.130 
#> 10 tri       bpi_3x3        0.226 
#> # ℹ 11 more rows
…
