…
``` r
row <- create_metric_catalog(
  metric = "slope_tri_index",
  process_group = "custom_relief",
  description = "Product of local slope and terrain ruggedness index."
)
validate_metric_catalog(row)
#> # A tibble: 1 × 9
#>   metric          label          process_group description units source_function
#>   <chr>           <chr>          <chr>         <chr>       <chr> <chr>          
#> 1 slope_tri_index slope_tri_ind… custom_relief Product of… NA    NA             
#> # ℹ 3 more variables: requires_optional_dependency <lgl>,
#> #   scale_sensitive <lgl>, interpretation_notes <chr>
extend_metric_catalog(metric_catalog(), row)
#> # A tibble: 51 × 9
#>    metric     label      process_group   description       units source_function
#>    <chr>      <chr>      <chr>           <chr>             <chr> <chr>          
#>  1 bathy      Bathymetry base_bathymetry Input bathymetri… inpu… as_bathy       
#>  2 hillshade  Hillshade  base_bathymetry Shaded-relief vi… rela… derive_hillsha…
#>  3 aspect_deg Aspect     seafloor_aspect Local downslope-… degr… derive_aspect  
#>  4 aspect_rad Aspect     seafloor_aspect Local downslope-… radi… derive_aspect  
#>  5 northness  Northness  seafloor_aspect Cosine transform… unit… derive_northne…
#>  6 eastness   Eastness   seafloor_aspect Sine transform o… unit… derive_eastness
#>  7 aspect_cos Northness  seafloor_aspect Project-derived … unit… external       
#>  8 aspect_sin Eastness   seafloor_aspect Project-derived … unit… external       
#>  9 slope_deg  Slope      slope_gradient  Local steepness … degr… derive_slope   
#> 10 slope_rad  Slope      slope_gradient  Local steepness … radi… derive_slope   
#> # ℹ 41 more rows
#> # ℹ 3 more variables: requires_optional_dependency <lgl>,
#> #   scale_sensitive <lgl>, interpretation_notes <chr>
```
