…
## See also

[`prepare_model_matrix()`](https://el-cordero.github.io/blueterra/reference/prepare_model_matrix.md),
[`terrain_correlation()`](https://el-cordero.github.io/blueterra/reference/terrain_correlation.md)

## Examples

``` r
bathy <- read_bathy(blueterra_example("bathy"))
terrain <- derive_terrain(bathy, metrics = c("slope", "bpi", "roughness"))
cells <- sample_terrain_cells(terrain, size = 30)
terrain_pca(cells)
#> $scores
#> # A tibble: 30 × 7
#>    row_id    PC1     PC2      PC3     PC4       x       y
#>     <int>  <dbl>   <dbl>    <dbl>   <dbl>   <dbl>   <dbl>
#>  1      1 -1.32  -0.993   0.436   -0.218  136789. 205541.
#>  2      2  0.174  1.10   -0.322   -0.154  135370. 204481.
#>  3      3 -4.38  -0.917  -1.05     0.0138 138288. 205720.
#>  4      4 -2.71   2.68    1.65     0.549  135790. 204801.
#>  5      5  1.36  -1.46    0.331    0.0784 137988. 205840.
#>  6      6  1.62  -1.26    0.138    0.155  135550. 204941.
#>  7      7  0.383  1.13   -0.428   -0.209  138667. 205620.
#>  8      8  0.329  0.0279  0.210   -0.0434 136509. 205021.
#>  9      9 -1.70  -0.253   1.32    -0.594  138387. 205760.
#> 10     10  0.248  0.332  -0.00901  0.0312 136069. 204921.
#> # ℹ 20 more rows
…
