Get started with blueterra • blueterra
…
#> [13] "Hole-in-the-Wall" "Hole-in-the-Wall" "Hole-in-the-Wall" "Hole-in-the-Wall"
#> [17] "Hole-in-the-Wall" "Hole-in-the-Wall" "Hole-in-the-Wall" "Hole-in-the-Wall"
#> [21] "Hole-in-the-Wall" "Hole-in-the-Wall" "Hole-in-the-Wall" "Hole-in-the-Wall"
#> [25] "Hole-in-the-Wall" "Hole-in-the-Wall" "Hole-in-the-Wall" "Hole-in-the-Wall"
#> [29] "Hole-in-the-Wall" "Hole-in-the-Wall" "Hole-in-the-Wall" "Hole-in-the-Wall"
#> [33] "Hole-in-the-Wall" "Hole-in-the-Wall" "Hole-in-the-Wall" "Hole-in-the-Wall"
#> [37] "Hole-in-the-Wall" "Hole-in-the-Wall" "Hole-in-the-Wall" "El Hoyo"         
#> [41] "El Hoyo"          "El Hoyo"          "El Hoyo"          "El Hoyo"         
#> [45] "El Hoyo"          "El Hoyo"          "El Hoyo"          "El Hoyo"         
#> [49] "El Hoyo"          "El Hoyo"          "El Hoyo"          "El Hoyo"         
#> [53] "El Hoyo"          "El Hoyo"          "El Hoyo"          "El Hoyo"         
#> [57] "El Hoyo"          "El Hoyo"          "El Hoyo"          "El Hoyo"         
#> 
#> $data
#> # A tibble: 60 × 7
#>          x       y slope_deg   tri  bpi_3x3 curvature site            
#>      <dbl>   <dbl>     <dbl> <dbl>    <dbl>     <dbl> <chr>           
#>  1 137488. 205640.      53.8  4.28  0.0472    -0.215  Hole-in-the-Wall
#>  2 137520. 205640.      46.1  3.24 -0.0102    -0.398  Hole-in-the-Wall
#>  3 137488. 205672.      81.1 20.2   1.26      -3.47   Hole-in-the-Wall
#>  4 137520. 205672.      79.9 17.3  -1.10       3.71   Hole-in-the-Wall
#>  5 137548. 205672.      69.6  8.29 -0.632      2.16   Hole-in-the-Wall
#>  6 137580. 205672.      53.6  4.15 -0.0755     0.174  Hole-in-the-Wall
#>  7 137608. 205672.      52.6  4.12 -0.368      1.14   Hole-in-the-Wall
#>  8 137640. 205672.      54.8  4.34  0.0302    -0.0526 Hole-in-the-Wall
#>  9 137668. 205672.      50.4  3.75 -0.00125    0.0511 Hole-in-the-Wall
#> 10 137700. 205672.      48.0  3.44 -0.275      0.829  Hole-in-the-Wall
#> # ℹ 50 more rows
…
