Process groups • blueterra
…
The catalog follows the process names used in the manuscript:
seafloor aspect, slope gradient, accumulation potential, transport
potential, seafloor position, seafloor rugosity, downslope pathway
proximity, and curvature. Accumulation potential replaces the older
terrain-convergence wording. External layers named
wetness_index_wbt, convergence_slope_index, or
convergence_slope_index_wbt are assigned to
accumulation_potential.

Metric Catalog

catalog <- metric_catalog()
catalog[, c("metric", "label", "process_group", "scale_sensitive")]
#> # A tibble: 50 × 4
#>    metric     label      process_group   scale_sensitive
#>    <chr>      <chr>      <chr>           <lgl>          
#>  1 bathy      Bathymetry base_bathymetry TRUE           
#>  2 hillshade  Hillshade  base_bathymetry TRUE           
#>  3 aspect_deg Aspect     seafloor_aspect TRUE           
#>  4 aspect_rad Aspect     seafloor_aspect TRUE           
#>  5 northness  Northness  seafloor_aspect TRUE           
#>  6 eastness   Eastness   seafloor_aspect TRUE           
#>  7 aspect_cos Northness  seafloor_aspect TRUE           
#>  8 aspect_sin Eastness   seafloor_aspect TRUE           
#>  9 slope_deg  Slope      slope_gradient  TRUE           
#> 10 slope_rad  Slope      slope_gradient  TRUE           
#> # ℹ 40 more rows
…
